{
  "setupFilesAfterEnv": ["<rootDir>/__tests__/jest/setupTests.js"],
  "testMatch": ["**/__tests__/jest/**/*.spec.[jt]s?(x)"],
  "moduleNameMapper": {
    "\\.(jpg|jpeg|png|gif|eot|otf|webp|svg|ttf|woff|woff2|mp4|webm|wav|mp3|m4a|aac|oga)$": "<rootDir>/__mocks__/fileMock.js",
    "\\.(css|less)$": "<rootDir>/__mocks__/styleMock.js",
    
    "^@ui-core(.*)$": "<rootDir>/src/components/ui-core$1",
    "^@store(.*)$" : "<rootDir>/src/core/store$1",
    "^@assets(.*)$" : "<rootDir>/src/assets$1",
    "^@styles(.*)$" : "<rootDir>/src/styles$1"
  }
}

