{
  "name": "",
  "css_prefix_text": "icon-",
  "css_use_suffix": false,
  "hinting": true,
  "units_per_em": 1000,
  "ascent": 850,
  "glyphs": [
    {
      "uid": "4dd56d61fd0dab19277824da301424b3",
      "css": "emo-devil",
      "code": 59397,
      "src": "fontelico"
    },
    {
      "uid": "68e298ff2d8b25dd7f647ed64f5ae690",
      "css": "emo-surprised",
      "code": 59398,
      "src": "fontelico"
    },
    {
      "uid": "bb68a13a3574b087d4350eff0b8d48e3",
      "css": "emo-tongue",
      "code": 59399,
      "src": "fontelico"
    },
    {
      "uid": "48cc210e59ff4bc56b6c8fba6eb384b8",
      "css": "emo-coffee",
      "code": 59400,
      "src": "fontelico"
    },
    {
      "uid": "cfaa8fbbdcc7bb8d636cb974aad1f9b9",
      "css": "glass",
      "code": 59392,
      "src": "fontawesome"
    },
    {
      "uid": "9ea0a737ccc45d6c510dcbae56058849",
      "css": "music",
      "code": 59393,
      "src": "fontawesome"
    },
    {
      "uid": "bf882b30900da12fca090d9796bc3030",
      "css": "mail",
      "code": 59394,
      "src": "fontawesome"
    },
    {
      "uid": "12f4ece88e46abd864e40b35e05b11cd",
      "css": "ok",
      "code": 59395,
      "src": "fontawesome"
    },
    {
      "uid": "dd6c6b221a1088ff8a9b9cd32d0b3dd5",
      "css": "check",
      "code": 59396,
      "src": "fontawesome"
    }
  ]
}